# Blender v2.92.0 OBJ File: ''
# www.blender.org
mtllib Plane.mtl
o Cube
v 1.000000 1.000000 0.000000
v 1.000000 -1.000000 0.000000
v 1.000000 1.000000 0.000000
v 1.000000 -1.000000 0.000000
v -1.000000 1.000000 0.000000
v -1.000000 -1.000000 0.000000
v -1.000000 1.000000 0.000000
v -1.000000 -1.000000 0.000000
vt 0.875000 0.500000
vt 0.625000 0.750000
vt 0.625000 0.500000
vt 1.000000 1.000000
vt 0.000000 0.000000
vt 1.000000 0.000000
vt 0.625000 0.000000
vt 0.375000 0.250000
vt 0.375000 0.000000
vt 0.375000 0.500000
vt 0.125000 0.750000
vt 0.125000 0.500000
vt 0.375000 0.750000
vt 0.625000 0.250000
vt 0.875000 0.750000
vt 0.000000 1.000000
vn 0.0000 0.0000 1.0000
vn 0.0000 0.0000 -1.0000
usemtl Material
s off
f 5/1/1 3/2/1 1/3/1
f 3/4/1 8/5/1 4/6/1
f 7/7/1 6/8/1 8/9/1
f 2/10/1 8/11/1 6/12/1
f 1/3/1 4/13/1 2/10/1
f 5/14/2 2/10/2 6/8/2
f 5/1/1 7/15/1 3/2/1
f 3/4/1 7/16/1 8/5/1
f 7/7/1 5/14/1 6/8/1
f 2/10/1 4/13/1 8/11/1
f 1/3/1 3/2/1 4/13/1
f 5/14/2 1/3/2 2/10/2
