# Blender MTL File: 'None'
# Material Count: 6

newmtl ID17
Ns 99.999988
Ka 0.500000 0.500000 0.500000
Kd 0.800000 0.800000 0.800000
Ks 0.000000 0.000000 0.000000
Ke 0.000000 0.000000 0.000000
Ni 1.450000
d 1.000000
illum 1
map_Kd ID17.png

newmtl ID30
Ns 99.999988
Ka 0.500000 0.500000 0.500000
Kd 0.800000 0.800000 0.800000
Ks 0.000000 0.000000 0.000000
Ke 0.000000 0.000000 0.000000
Ni 1.450000
d 1.000000
illum 1
map_Kd ID30.png

newmtl ID4
Ns 99.999988
Ka 0.500000 0.500000 0.500000
Kd 0.800000 0.800000 0.800000
Ks 0.000000 0.000000 0.000000
Ke 0.000000 0.000000 0.000000
Ni 1.450000
d 1.000000
illum 1
map_Kd ID4.png

newmtl ID43
Ns 99.999988
Ka 0.500000 0.500000 0.500000
Kd 0.800000 0.800000 0.800000
Ks 0.000000 0.000000 0.000000
Ke 0.000000 0.000000 0.000000
Ni 1.450000
d 1.000000
illum 1
map_Kd ID43.png

newmtl ID56
Ns 99.999988
Ka 0.500000 0.500000 0.500000
Kd 0.800000 0.800000 0.800000
Ks 0.000000 0.000000 0.000000
Ke 0.000000 0.000000 0.000000
Ni 1.450000
d 1.000000
illum 1
map_Kd ID56.png

newmtl ID69
Ns 99.999988
Ka 0.500000 0.500000 0.500000
Kd 0.800000 0.800000 0.800000
Ks 0.000000 0.000000 0.000000
Ke 0.000000 0.000000 0.000000
Ni 1.450000
d 1.000000
illum 1
map_Kd ID69.png
